CPU.vcd
$date
	Wed Dec  7 13:18:23 2022
$end
$version
	Icarus Verilog
$end
$timescale
	1s
$end
$scope module TestBench $end
$var reg 1 ! Clk $end
$var reg 1 " Reset $end
$var reg 1 # Start $end
$var integer 32 $ counter [31:0] $end
$var integer 32 % flush [31:0] $end
$var integer 32 & i [31:0] $end
$var integer 32 ' outfile [31:0] $end
$var integer 32 ( stall [31:0] $end
$scope module CPU $end
$var wire 32 ) ALUsrcdata1 [31:0] $end
$var wire 32 * EX_memwritedata [31:0] $end
$var wire 1 ! clk_i $end
$var wire 32 + four [31:0] $end
$var wire 1 , pc_write $end
$var wire 1 " rst_i $end
$var wire 1 # start_i $end
$var wire 32 - tmp [31:0] $end
$var wire 32 . srcdata2 [31:0] $end
$var wire 32 / srcdata1 [31:0] $end
$var wire 32 0 old_pc [31:0] $end
$var wire 32 1 new_pc [31:0] $end
$var wire 32 2 WB_writedata [31:0] $end
$var wire 5 3 WB_rdaddr [4:0] $end
$var wire 32 4 WB_memreaddata [31:0] $end
$var wire 1 5 WB_RegWrite $end
$var wire 1 6 WB_MemtoReg $end
$var wire 32 7 WB_ALUresult [31:0] $end
$var wire 5 8 MEM_rdaddr [4:0] $end
$var wire 32 9 MEM_memwritedata [31:0] $end
$var wire 32 : MEM_memreaddata [31:0] $end
$var wire 1 ; MEM_RegWrite $end
$var wire 1 < MEM_MemtoReg $end
$var wire 1 = MEM_MemWrite $end
$var wire 1 > MEM_MemRead $end
$var wire 32 ? MEM_ALUresult [31:0] $end
$var wire 32 @ IF_instruction [31:0] $end
$var wire 32 A ID_rs2data [31:0] $end
$var wire 32 B ID_rs1data [31:0] $end
$var wire 32 C ID_instruction [31:0] $end
$var wire 1 D ID_RegWrite $end
$var wire 1 E ID_MemtoReg $end
$var wire 1 F ID_MemWrite $end
$var wire 1 G ID_MemRead $end
$var wire 32 H ID_Imm [31:0] $end
$var wire 1 I ID_ALUSrc $end
$var wire 3 J ID_ALUOp [2:0] $end
$var wire 2 K ForwardB [1:0] $end
$var wire 2 L ForwardA [1:0] $end
$var wire 32 M EX_rs2data [31:0] $end
$var wire 32 N EX_rs1data [31:0] $end
$var wire 32 O EX_instruction [31:0] $end
$var wire 1 P EX_RegWrite $end
$var wire 1 Q EX_MemtoReg $end
$var wire 1 R EX_MemWrite $end
$var wire 1 S EX_MemRead $end
$var wire 32 T EX_Imm [31:0] $end
$var wire 32 U EX_ALUresult [31:0] $end
$var wire 1 V EX_ALUSrc $end
$var wire 3 W EX_ALUOp [2:0] $end
$var wire 32 X ALUsrcdata2 [31:0] $end
$scope module ALU $end
$var wire 32 Y data1_i [31:0] $end
$var wire 32 Z data_o [31:0] $end
$var wire 32 [ data2_i [31:0] $end
$var wire 3 \ ALUCtrl_i [2:0] $end
$var reg 32 ] data_reg [31:0] $end
$upscope $end
$scope module Add_PC $end
$var wire 32 ^ data2_in [31:0] $end
$var wire 32 _ data_o [31:0] $end
$var wire 32 ` data1_in [31:0] $end
$upscope $end
$scope module Control $end
$var wire 3 a ALUOp_o [2:0] $end
$var wire 1 I ALUSrc_o $end
$var wire 1 G MemRead_o $end
$var wire 1 F MemWrite_o $end
$var wire 1 E MemtoReg_o $end
$var wire 1 D RegWrite_o $end
$var wire 32 b Op_i [31:0] $end
$var reg 3 c ALUOp_reg [2:0] $end
$var reg 1 d ALUSrc_reg $end
$var reg 1 e MemRead_reg $end
$var reg 1 f MemWrite_reg $end
$var reg 1 g MemtoReg_reg $end
$var reg 1 h RegWrite_reg $end
$upscope $end
$scope module Data_Memory $end
$var wire 1 ! clk_i $end
$var wire 32 i data_o [31:0] $end
$var wire 32 j data_i [31:0] $end
$var wire 32 k addr_i [31:0] $end
$var wire 1 = MemWrite_i $end
$var wire 1 > MemRead_i $end
$upscope $end
$scope module EXMEMRegisters $end
$var wire 32 l ALUResult_i [31:0] $end
$var wire 1 = MemWrite_o $end
$var wire 1 < MemtoReg_o $end
$var wire 5 m RDaddr_i [4:0] $end
$var wire 5 n RDaddr_o [4:0] $end
$var wire 32 o RS2data_i [31:0] $end
$var wire 32 p RS2data_o [31:0] $end
$var wire 1 ; RegWrite_o $end
$var wire 1 ! clk_i $end
$var wire 1 " rst_i $end
$var wire 1 P RegWrite_i $end
$var wire 1 Q MemtoReg_i $end
$var wire 1 R MemWrite_i $end
$var wire 1 > MemRead_o $end
$var wire 1 S MemRead_i $end
$var wire 32 q ALUResult_o [31:0] $end
$var reg 32 r ALUResult_reg [31:0] $end
$var reg 1 > MemRead_reg $end
$var reg 1 s MemWrite_reg $end
$var reg 1 t MemtoReg_reg $end
$var reg 5 u RDaddr_reg [4:0] $end
$var reg 32 v RS2data_reg [31:0] $end
$var reg 1 w RegWrite_reg $end
$upscope $end
$scope module ForwardingUnit $end
$var wire 5 x EXrs1_i [4:0] $end
$var wire 5 y EXrs2_i [4:0] $end
$var wire 2 z ForwardA_o [1:0] $end
$var wire 2 { ForwardB_o [1:0] $end
$var wire 1 ; MEMRegWrite_i $end
$var wire 5 | MEMrd_i [4:0] $end
$var wire 5 } WBrd_i [4:0] $end
$var wire 1 5 WBRegWrite_i $end
$var reg 2 ~ ForwardA_reg [1:0] $end
$var reg 2 !" ForwardB_reg [1:0] $end
$upscope $end
$scope module IDEXRegisters $end
$var wire 3 "" ALUOp_i [2:0] $end
$var wire 3 #" ALUOp_o [2:0] $end
$var wire 1 I ALUSrc_i $end
$var wire 1 V ALUSrc_o $end
$var wire 32 $" Imm_o [31:0] $end
$var wire 1 G MemRead_i $end
$var wire 1 S MemRead_o $end
$var wire 1 F MemWrite_i $end
$var wire 1 R MemWrite_o $end
$var wire 1 E MemtoReg_i $end
$var wire 1 Q MemtoReg_o $end
$var wire 32 %" RS1data_o [31:0] $end
$var wire 32 &" RS2data_o [31:0] $end
$var wire 1 D RegWrite_i $end
$var wire 1 P RegWrite_o $end
$var wire 1 ! clk_i $end
$var wire 1 " rst_i $end
$var wire 32 '" RS2data_i [31:0] $end
$var wire 32 (" RS1data_i [31:0] $end
$var wire 32 )" Op_o [31:0] $end
$var wire 32 *" Op_i [31:0] $end
$var wire 32 +" Imm_i [31:0] $end
$var reg 3 ," ALUOp_reg [2:0] $end
$var reg 1 -" ALUSrc_reg $end
$var reg 32 ." Imm_reg [31:0] $end
$var reg 1 /" MemRead_reg $end
$var reg 1 0" MemWrite_reg $end
$var reg 1 1" MemtoReg_reg $end
$var reg 32 2" Op_reg [31:0] $end
$var reg 32 3" RS1data_reg [31:0] $end
$var reg 32 4" RS2data_reg [31:0] $end
$var reg 1 5" RegWrite_reg $end
$upscope $end
$scope module IFIDRegisters $end
$var wire 1 ! clk_i $end
$var wire 1 " rst_i $end
$var wire 32 6" Op_o [31:0] $end
$var wire 32 7" Op_i [31:0] $end
$var reg 32 8" Op_reg [31:0] $end
$upscope $end
$scope module ImmGen $end
$var wire 32 9" Op_i [31:0] $end
$var wire 32 :" Imm_o [31:0] $end
$var wire 12 ;" Imm_12 [11:0] $end
$var reg 12 <" Imm_reg [11:0] $end
$scope module Imm_Sign_Extend $end
$var wire 12 =" data_i [11:0] $end
$var wire 32 >" data_o [31:0] $end
$upscope $end
$upscope $end
$scope module Instruction_Memory $end
$var wire 32 ?" instr_o [31:0] $end
$var wire 32 @" addr_i [31:0] $end
$upscope $end
$scope module MEMWBRegisters $end
$var wire 32 A" ALUResult_i [31:0] $end
$var wire 32 B" ALUResult_o [31:0] $end
$var wire 32 C" Memdata_i [31:0] $end
$var wire 32 D" Memdata_o [31:0] $end
$var wire 1 < MemtoReg_i $end
$var wire 1 6 MemtoReg_o $end
$var wire 5 E" RDaddr_i [4:0] $end
$var wire 1 ; RegWrite_i $end
$var wire 1 ! clk_i $end
$var wire 1 " rst_i $end
$var wire 1 5 RegWrite_o $end
$var wire 5 F" RDaddr_o [4:0] $end
$var reg 32 G" ALUResult_reg [31:0] $end
$var reg 32 H" Memdata_reg [31:0] $end
$var reg 1 I" MemtoReg_reg $end
$var reg 5 J" RDaddr_reg [4:0] $end
$var reg 1 5 RegWrite_reg $end
$upscope $end
$scope module MUXA $end
$var wire 32 K" data1_i [31:0] $end
$var wire 32 L" data3_i [31:0] $end
$var wire 32 M" data4_i [31:0] $end
$var wire 2 N" select_i [1:0] $end
$var wire 32 O" data_o [31:0] $end
$var wire 32 P" data2_i [31:0] $end
$var reg 32 Q" data_reg [31:0] $end
$upscope $end
$scope module MUXB $end
$var wire 32 R" data1_i [31:0] $end
$var wire 32 S" data3_i [31:0] $end
$var wire 32 T" data4_i [31:0] $end
$var wire 2 U" select_i [1:0] $end
$var wire 32 V" data_o [31:0] $end
$var wire 32 W" data2_i [31:0] $end
$var reg 32 X" data_reg [31:0] $end
$upscope $end
$scope module MUX_ALUSrc2 $end
$var wire 32 Y" data1_i [31:0] $end
$var wire 32 Z" data2_i [31:0] $end
$var wire 32 [" data_o [31:0] $end
$var wire 1 V select_i $end
$var reg 32 \" data_reg [31:0] $end
$upscope $end
$scope module PC $end
$var wire 1 , PCWrite_i $end
$var wire 1 ! clk_i $end
$var wire 32 ]" pc_i [31:0] $end
$var wire 1 " rst_i $end
$var wire 1 # start_i $end
$var reg 32 ^" pc_o [31:0] $end
$upscope $end
$scope module Registers $end
$var wire 5 _" RDaddr_i [4:0] $end
$var wire 5 `" RS1addr_i [4:0] $end
$var wire 5 a" RS2addr_i [4:0] $end
$var wire 1 5 RegWrite_i $end
$var wire 1 ! clk_i $end
$var wire 32 b" RS2data_o [31:0] $end
$var wire 32 c" RS1data_o [31:0] $end
$var wire 32 d" RDdata_i [31:0] $end
$upscope $end
$scope module WriteBachDataMUX $end
$var wire 32 e" data1_i [31:0] $end
$var wire 32 f" data2_i [31:0] $end
$var wire 1 6 select_i $end
$var wire 32 g" data_o [31:0] $end
$var reg 32 h" data_reg [31:0] $end
$upscope $end
$upscope $end
$upscope $end
$enddefinitions $end
#0
$dumpvars
b0 h"
b0 g"
b0 f"
b0 e"
b0 d"
b0 c"
b0 b"
b0 a"
b0 `"
b0 _"
b0 ^"
b100 ]"
b0 \"
b0 ["
b0 Z"
b0 Y"
b0 X"
b0 W"
b0 V"
b0 U"
b0 T"
b0 S"
b0 R"
b0 Q"
b0 P"
b0 O"
b0 N"
b0 M"
b0 L"
b0 K"
b0 J"
0I"
b0 H"
b0 G"
b0 F"
b0 E"
b0 D"
b0 C"
b0 B"
b0 A"
b0 @"
b1100010000000100000110011 ?"
b0 >"
b0 ="
b0 <"
b0 ;"
b0 :"
b0 9"
b0 8"
b1100010000000100000110011 7"
b0 6"
05"
b0 4"
b0 3"
b0 2"
01"
00"
0/"
b0 ."
0-"
b0 ,"
b0 +"
b0 *"
b0 )"
b0 ("
b0 '"
b0 &"
b0 %"
b0 $"
b0 #"
b0 ""
b0 !"
b0 ~
b0 }
b0 |
b0 {
b0 z
b0 y
b0 x
0w
b0 v
b0 u
0t
0s
b0 r
b0 q
b0 p
b0 o
b0 n
b0 m
b0 l
b0 k
b0 j
b0 i
0h
0g
0f
0e
0d
b0 c
b0 b
b0 a
b0 `
b100 _
b100 ^
b0 ]
b0 \
b0 [
b0 Z
b0 Y
b0 X
b0 W
0V
b0 U
b0 T
0S
0R
0Q
0P
b0 O
b0 N
b0 M
b0 L
b0 K
b0 J
0I
b0 H
0G
0F
0E
0D
b0 C
b0 B
b0 A
b1100010000000100000110011 @
b0 ?
0>
0=
0<
0;
b0 :
b0 9
b0 8
b0 7
06
05
b0 4
b0 3
b0 2
b0 1
b100 0
b0 /
b0 .
b0 -
1,
b100 +
b0 *
b0 )
b0 (
b11 '
b100000 &
b0 %
b0 $
0#
1"
1!
$end
#12
1#
0"
#25
0!
#50
1D
1h
b11111111111111111111111111101000 A
b11111111111111111111111111101000 '"
b11111111111111111111111111101000 b"
b11000 a"
b10000 `"
b1100110000000100000110011 @
b1100110000000100000110011 7"
b1100110000000100000110011 ?"
b1100010000000100000110011 C
b1100010000000100000110011 b
b1100010000000100000110011 *"
b1100010000000100000110011 6"
b1100010000000100000110011 8"
b1100010000000100000110011 9"
b1000 0
b1000 _
b1000 ]"
b100 1
b100 `
b100 @"
b100 ^"
b1 $
1!
#75
0!
#100
b11111111111111111111111111101000 U
b11111111111111111111111111101000 Z
b11111111111111111111111111101000 l
b11111111111111111111111111101000 ]
b11111111111111111111111111101000 X
b11111111111111111111111111101000 [
b11111111111111111111111111101000 ["
b11111111111111111111111111101000 \"
b11111111111111111111111111101000 *
b11111111111111111111111111101000 o
b11111111111111111111111111101000 .
b11111111111111111111111111101000 V"
b11111111111111111111111111101000 X"
b11111111111111111111111111101000 Y"
b11111111111111111111111111100111 A
b11111111111111111111111111100111 '"
b11111111111111111111111111100111 b"
b1101010000000100000110011 @
b1101010000000100000110011 7"
b1101010000000100000110011 ?"
b11001 a"
b10000 m
b11000 y
b10000 x
b1100 0
b1100 _
b1100 ]"
b1000 1
b1000 `
b1000 @"
b1000 ^"
b1100110000000100000110011 C
b1100110000000100000110011 b
b1100110000000100000110011 *"
b1100110000000100000110011 6"
b1100110000000100000110011 8"
b1100110000000100000110011 9"
b1100010000000100000110011 O
b1100010000000100000110011 )"
b1100010000000100000110011 2"
b11111111111111111111111111101000 M
b11111111111111111111111111101000 &"
b11111111111111111111111111101000 R"
b11111111111111111111111111101000 4"
1P
15"
b10 $
1!
#125
0!
#150
b11111111111111111111111111101000 )
b11111111111111111111111111101000 Y
b11111111111111111111111111101000 /
b11111111111111111111111111101000 O"
b11111111111111111111111111101000 Q"
b11111111111111111111111111001111 U
b11111111111111111111111111001111 Z
b11111111111111111111111111001111 l
b11111111111111111111111111001111 ]
b11111111111111111111111111100111 X
b11111111111111111111111111100111 [
b11111111111111111111111111100111 ["
b11111111111111111111111111100111 \"
b10 L
b10 z
b10 N"
b10 ~
b11111111111111111111111111100111 *
b11111111111111111111111111100111 o
b11111111111111111111111111100111 .
b11111111111111111111111111100111 V"
b11111111111111111111111111100111 X"
b11111111111111111111111111100111 Y"
b11111111111111111111111111100110 A
b11111111111111111111111111100110 '"
b11111111111111111111111111100110 b"
b11001 y
b11010 a"
b1110010000000100000110011 @
b1110010000000100000110011 7"
b1110010000000100000110011 ?"
b10000 8
b10000 n
b10000 |
b10000 E"
b10000 u
b11111111111111111111111111101000 9
b11111111111111111111111111101000 j
b11111111111111111111111111101000 p
b11111111111111111111111111101000 v
b11111111111111111111111111101000 ?
b11111111111111111111111111101000 k
b11111111111111111111111111101000 q
b11111111111111111111111111101000 r
b11111111111111111111111111101000 A"
b11111111111111111111111111101000 L"
b11111111111111111111111111101000 S"
1;
1w
b1100110000000100000110011 O
b1100110000000100000110011 )"
b1100110000000100000110011 2"
b11111111111111111111111111100111 M
b11111111111111111111111111100111 &"
b11111111111111111111111111100111 R"
b11111111111111111111111111100111 4"
b1101010000000100000110011 C
b1101010000000100000110011 b
b1101010000000100000110011 *"
b1101010000000100000110011 6"
b1101010000000100000110011 8"
b1101010000000100000110011 9"
b10000 0
b10000 _
b10000 ]"
b1100 1
b1100 `
b1100 @"
b1100 ^"
b11 $
1!
#175
0!
#200
b11111111111111111111111110110101 U
b11111111111111111111111110110101 Z
b11111111111111111111111110110101 l
b11111111111111111111111110110101 ]
b11111111111111111111111111100110 X
b11111111111111111111111111100110 [
b11111111111111111111111111100110 ["
b11111111111111111111111111100110 \"
b11111111111111111111111111001111 )
b11111111111111111111111111001111 Y
b11111111111111111111111111001111 /
b11111111111111111111111111001111 O"
b11111111111111111111111111001111 Q"
b11111111111111111111111111100110 *
b11111111111111111111111111100110 o
b11111111111111111111111111100110 .
b11111111111111111111111111100110 V"
b11111111111111111111111111100110 X"
b11111111111111111111111111100110 Y"
b111000 A
b111000 '"
b111000 b"
b11111111111111111111111111101000 B
b11111111111111111111111111101000 ("
b11111111111111111111111111101000 c"
b1000000000010110000100011 @
b1000000000010110000100011 7"
b1000000000010110000100011 ?"
b11100 a"
b11010 y
b11111111111111111111111111101000 2
b11111111111111111111111111101000 P"
b11111111111111111111111111101000 W"
b11111111111111111111111111101000 d"
b11111111111111111111111111101000 g"
b11111111111111111111111111101000 h"
b10100 0
b10100 _
b10100 ]"
b10000 1
b10000 `
b10000 @"
b10000 ^"
b1110010000000100000110011 C
b1110010000000100000110011 b
b1110010000000100000110011 *"
b1110010000000100000110011 6"
b1110010000000100000110011 8"
b1110010000000100000110011 9"
b1101010000000100000110011 O
b1101010000000100000110011 )"
b1101010000000100000110011 2"
b11111111111111111111111111100110 M
b11111111111111111111111111100110 &"
b11111111111111111111111111100110 R"
b11111111111111111111111111100110 4"
b11111111111111111111111111100111 9
b11111111111111111111111111100111 j
b11111111111111111111111111100111 p
b11111111111111111111111111100111 v
b11111111111111111111111111001111 ?
b11111111111111111111111111001111 k
b11111111111111111111111111001111 q
b11111111111111111111111111001111 r
b11111111111111111111111111001111 A"
b11111111111111111111111111001111 L"
b11111111111111111111111111001111 S"
b10000 3
b10000 }
b10000 F"
b10000 J"
b10000 _"
b11111111111111111111111111101000 7
b11111111111111111111111111101000 B"
b11111111111111111111111111101000 e"
b11111111111111111111111111101000 G"
15
b100 $
1!
#225
0!
#250
b111000 X
b111000 [
b111000 ["
b111000 \"
b11111111111111111111111111101101 U
b11111111111111111111111111101101 Z
b11111111111111111111111111101101 l
b11111111111111111111111111101101 ]
b111000 *
b111000 o
b111000 .
b111000 V"
b111000 X"
b111000 Y"
b11111111111111111111111110110101 )
b11111111111111111111111110110101 Y
b11111111111111111111111110110101 /
b11111111111111111111111110110101 O"
b11111111111111111111111110110101 Q"
1F
1f
0D
0h
1I
1d
b11000 H
b11000 +"
b11000 :"
b11000 >"
b11000 ;"
b11000 <"
b11000 ="
b0 B
b0 ("
b0 c"
b11111111111111111111111111001111 A
b11111111111111111111111111001111 '"
b11111111111111111111111111001111 b"
b11111111111111111111111111001111 2
b11111111111111111111111111001111 P"
b11111111111111111111111111001111 W"
b11111111111111111111111111001111 d"
b11111111111111111111111111001111 g"
b11111111111111111111111111001111 h"
b11100 y
b10000 a"
b0 `"
b1000001111011111000000010110011 @
b1000001111011111000000010110011 7"
b1000001111011111000000010110011 ?"
b11111111111111111111111111001111 7
b11111111111111111111111111001111 B"
b11111111111111111111111111001111 e"
b11111111111111111111111111001111 G"
b11111111111111111111111111100110 9
b11111111111111111111111111100110 j
b11111111111111111111111111100110 p
b11111111111111111111111111100110 v
b11111111111111111111111110110101 ?
b11111111111111111111111110110101 k
b11111111111111111111111110110101 q
b11111111111111111111111110110101 r
b11111111111111111111111110110101 A"
b11111111111111111111111110110101 L"
b11111111111111111111111110110101 S"
b1110010000000100000110011 O
b1110010000000100000110011 )"
b1110010000000100000110011 2"
b111000 M
b111000 &"
b111000 R"
b111000 4"
b11111111111111111111111111101000 N
b11111111111111111111111111101000 %"
b11111111111111111111111111101000 K"
b11111111111111111111111111101000 3"
b1000000000010110000100011 C
b1000000000010110000100011 b
b1000000000010110000100011 *"
b1000000000010110000100011 6"
b1000000000010110000100011 8"
b1000000000010110000100011 9"
b11000 0
b11000 _
b11000 ]"
b10100 1
b10100 `
b10100 @"
b10100 ^"
b101 $
1!
#275
0!
#300
b10 K
b10 {
b10 U"
b10 !"
b0 L
b0 z
b0 N"
b0 ~
b10 J
b10 a
b10 ""
b10 c
0F
0f
1D
1h
0I
0d
b0 )
b0 Y
b0 /
b0 O"
b0 Q"
b11111111111111111111111111101101 *
b11111111111111111111111111101101 o
b11111111111111111111111111101101 .
b11111111111111111111111111101101 V"
b11111111111111111111111111101101 X"
b11111111111111111111111111101101 Y"
b111110 B
b111110 ("
b111110 c"
b11000 U
b11000 Z
b11000 l
b11000 ]
b111100 A
b111100 '"
b111100 b"
b1111000001000000100110011 @
b1111000001000000100110011 7"
b1111000001000000100110011 ?"
b11110 a"
b11111 `"
b11000 m
b10000 y
b0 x
b11000 X
b11000 [
b11000 ["
b11000 \"
b11111111111111111111111110110101 2
b11111111111111111111111110110101 P"
b11111111111111111111111110110101 W"
b11111111111111111111111110110101 d"
b11111111111111111111111110110101 g"
b11111111111111111111111110110101 h"
b11100 0
b11100 _
b11100 ]"
b11000 1
b11000 `
b11000 @"
b11000 ^"
b1000001111011111000000010110011 C
b1000001111011111000000010110011 b
b1000001111011111000000010110011 *"
b1000001111011111000000010110011 6"
b1000001111011111000000010110011 8"
b1000001111011111000000010110011 9"
b1000000000010110000100011 O
b1000000000010110000100011 )"
b1000000000010110000100011 2"
b11000 T
b11000 $"
b11000 Z"
b11000 ."
b11111111111111111111111111001111 M
b11111111111111111111111111001111 &"
b11111111111111111111111111001111 R"
b11111111111111111111111111001111 4"
b0 N
b0 %"
b0 K"
b0 3"
1R
10"
0P
05"
1V
1-"
b111000 9
b111000 j
b111000 p
b111000 v
b11111111111111111111111111101101 ?
b11111111111111111111111111101101 k
b11111111111111111111111111101101 q
b11111111111111111111111111101101 r
b11111111111111111111111111101101 A"
b11111111111111111111111111101101 L"
b11111111111111111111111111101101 S"
b11111111111111111111111110110101 7
b11111111111111111111111110110101 B"
b11111111111111111111111110110101 e"
b11111111111111111111111110110101 G"
b110 $
1!
#325
0!
#350
b0 K
b0 {
b0 U"
b0 !"
b111100 *
b111100 o
b111100 .
b111100 V"
b111100 X"
b111100 Y"
b111110 )
b111110 Y
b111110 /
b111110 O"
b111110 Q"
b0 J
b0 a
b0 ""
b0 c
b0 B
b0 ("
b0 c"
b11111111111111111111111111101101 2
b11111111111111111111111111101101 P"
b11111111111111111111111111101101 W"
b11111111111111111111111111101101 d"
b11111111111111111111111111101101 g"
b11111111111111111111111111101101 h"
b1 m
b11110 y
b11111 x
b10 U
b10 Z
b10 l
b10 ]
b111100 X
b111100 [
b111100 ["
b111100 \"
b1 `"
b1000000001000010101000110010011 @
b1000000001000010101000110010011 7"
b1000000001000010101000110010011 ?"
b11111111111111111111111111101101 7
b11111111111111111111111111101101 B"
b11111111111111111111111111101101 e"
b11111111111111111111111111101101 G"
b11000 8
b11000 n
b11000 |
b11000 E"
b11000 u
b11111111111111111111111111101101 9
b11111111111111111111111111101101 j
b11111111111111111111111111101101 p
b11111111111111111111111111101101 v
b11000 ?
b11000 k
b11000 q
b11000 r
b11000 A"
b11000 L"
b11000 S"
1=
1s
0;
0w
b1000001111011111000000010110011 O
b1000001111011111000000010110011 )"
b1000001111011111000000010110011 2"
b111100 M
b111100 &"
b111100 R"
b111100 4"
b111110 N
b111110 %"
b111110 K"
b111110 3"
b10 W
b10 \
b10 #"
b10 ,"
0R
00"
1P
15"
0V
0-"
b1111000001000000100110011 C
b1111000001000000100110011 b
b1111000001000000100110011 *"
b1111000001000000100110011 6"
b1111000001000000100110011 8"
b1111000001000000100110011 9"
b100000 0
b100000 _
b100000 ]"
b11100 1
b11100 `
b11100 @"
b11100 ^"
b111 $
1!
#375
0!
#400
b10 L
b10 z
b10 N"
b10 ~
b10 H
b10 +"
b10 :"
b10 >"
b10 ;"
b10 <"
b10 ="
b101 J
b101 a
b101 ""
b101 c
1I
1d
b10 )
b10 Y
b10 /
b10 O"
b10 Q"
b0 A
b0 '"
b0 b"
b1000000000011010010011 @
b1000000000011010010011 7"
b1000000000011010010011 ?"
b10 a"
b10 `"
b10 m
b1 x
b111110 U
b111110 Z
b111110 l
b111110 ]
b11000 2
b11000 P"
b11000 W"
b11000 d"
b11000 g"
b11000 h"
b100100 0
b100100 _
b100100 ]"
b100000 1
b100000 `
b100000 @"
b100000 ^"
b1000000001000010101000110010011 C
b1000000001000010101000110010011 b
b1000000001000010101000110010011 *"
b1000000001000010101000110010011 6"
b1000000001000010101000110010011 8"
b1000000001000010101000110010011 9"
b1111000001000000100110011 O
b1111000001000000100110011 )"
b1111000001000000100110011 2"
b0 N
b0 %"
b0 K"
b0 3"
b0 W
b0 \
b0 #"
b0 ,"
b1 8
b1 n
b1 |
b1 E"
b1 u
b111100 9
b111100 j
b111100 p
b111100 v
b10 ?
b10 k
b10 q
b10 r
b10 A"
b10 L"
b10 S"
0=
0s
1;
1w
b11000 3
b11000 }
b11000 F"
b11000 J"
b11000 _"
b11000 7
b11000 B"
b11000 e"
b11000 G"
05
b1000 $
1!
#425
0!
#450
b10 K
b10 {
b10 U"
b10 !"
b111110 )
b111110 Y
b111110 /
b111110 O"
b111110 Q"
b111110 *
b111110 o
b111110 .
b111110 V"
b111110 X"
b111110 Y"
b0 J
b0 a
b0 ""
b0 c
b10 2
b10 P"
b10 W"
b10 d"
b10 g"
b10 h"
b11 m
b10 y
b10 x
b1111 U
b1111 Z
b1111 l
b1111 ]
b10 X
b10 [
b10 ["
b10 \"
b0 `"
b110111110001011110110011 @
b110111110001011110110011 7"
b110111110001011110110011 ?"
b1 3
b1 }
b1 F"
b1 J"
b1 _"
b10 7
b10 B"
b10 e"
b10 G"
15
b10 8
b10 n
b10 |
b10 E"
b10 u
b111110 ?
b111110 k
b111110 q
b111110 r
b111110 A"
b111110 L"
b111110 S"
b1000000001000010101000110010011 O
b1000000001000010101000110010011 )"
b1000000001000010101000110010011 2"
b10 T
b10 $"
b10 Z"
b10 ."
b0 M
b0 &"
b0 R"
b0 4"
b101 W
b101 \
b101 #"
b101 ,"
1V
1-"
b1000000000011010010011 C
b1000000000011010010011 b
b1000000000011010010011 *"
b1000000000011010010011 6"
b1000000000011010010011 8"
b1000000000011010010011 9"
b101000 0
b101000 _
b101000 ]"
b100100 1
b100100 `
b100100 @"
b100100 ^"
b1001 $
1!
#475
0!
#500
b1 J
b1 a
b1 ""
b1 c
0I
0d
b0 )
b0 Y
b0 /
b0 O"
b0 Q"
b111110 *
b111110 o
b111110 .
b111110 V"
b111110 X"
b111110 Y"
b1 K
b1 {
b1 U"
b1 !"
b0 L
b0 z
b0 N"
b0 ~
b111100 B
b111100 ("
b111100 c"
b0 A
b0 '"
b0 b"
b1100000010101000100011 @
b1100000010101000100011 7"
b1100000010101000100011 ?"
b1101 a"
b11110 `"
b1101 m
b0 x
b10 U
b10 Z
b10 l
b10 ]
b111110 2
b111110 P"
b111110 W"
b111110 d"
b111110 g"
b111110 h"
b101100 0
b101100 _
b101100 ]"
b101000 1
b101000 `
b101000 @"
b101000 ^"
b110111110001011110110011 C
b110111110001011110110011 b
b110111110001011110110011 *"
b110111110001011110110011 6"
b110111110001011110110011 8"
b110111110001011110110011 9"
b1000000000011010010011 O
b1000000000011010010011 )"
b1000000000011010010011 2"
b0 W
b0 \
b0 #"
b0 ,"
b11 8
b11 n
b11 |
b11 E"
b11 u
b111110 9
b111110 j
b111110 p
b111110 v
b1111 ?
b1111 k
b1111 q
b1111 r
b1111 A"
b1111 L"
b1111 S"
b10 3
b10 }
b10 F"
b10 J"
b10 _"
b111110 7
b111110 B"
b111110 e"
b111110 G"
b1010 $
1!
#525
0!
#550
b10 *
b10 o
b10 .
b10 V"
b10 X"
b10 Y"
b10 K
b10 {
b10 U"
b10 !"
b111100 )
b111100 Y
b111100 /
b111100 O"
b111100 Q"
b0 J
b0 a
b0 ""
b0 c
1F
1f
0D
0h
1I
1d
b10100 H
b10100 +"
b10100 :"
b10100 >"
b10100 ;"
b10100 <"
b10100 ="
b1111 A
b1111 '"
b1111 b"
b0 B
b0 ("
b0 c"
b1111 2
b1111 P"
b1111 W"
b1111 d"
b1111 g"
b1111 h"
b1111 m
b1101 y
b11110 x
b11110000 U
b11110000 Z
b11110000 l
b11110000 ]
b10 X
b10 [
b10 ["
b10 \"
b11 a"
b0 `"
b10101000000011 @
b10101000000011 7"
b10101000000011 ?"
b11 3
b11 }
b11 F"
b11 J"
b11 _"
b1111 7
b1111 B"
b1111 e"
b1111 G"
b1101 8
b1101 n
b1101 |
b1101 E"
b1101 u
b10 ?
b10 k
b10 q
b10 r
b10 A"
b10 L"
b10 S"
b110111110001011110110011 O
b110111110001011110110011 )"
b110111110001011110110011 2"
b111100 N
b111100 %"
b111100 K"
b111100 3"
b1 W
b1 \
b1 #"
b1 ,"
0V
0-"
b1100000010101000100011 C
b1100000010101000100011 b
b1100000010101000100011 *"
b1100000010101000100011 6"
b1100000010101000100011 8"
b1100000010101000100011 9"
b110000 0
b110000 _
b110000 ]"
b101100 1
b101100 `
b101100 @"
b101100 ^"
b1011 $
1!
#575
0!
#600
b0 H
b0 +"
b0 :"
b0 >"
b0 ;"
b0 <"
b0 ="
0F
0f
1G
1e
1E
1g
1D
1h
b0 )
b0 Y
b0 /
b0 O"
b0 Q"
b1111 *
b1111 o
b1111 .
b1111 V"
b1111 X"
b1111 Y"
b0 K
b0 {
b0 U"
b0 !"
b0 A
b0 '"
b0 b"
b10000000010101010000011 @
b10000000010101010000011 7"
b10000000010101010000011 ?"
b0 a"
b10100 m
b11 y
b0 x
b10100 U
b10100 Z
b10100 l
b10100 ]
b10100 X
b10100 [
b10100 ["
b10100 \"
b10 2
b10 P"
b10 W"
b10 d"
b10 g"
b10 h"
b110100 0
b110100 _
b110100 ]"
b110000 1
b110000 `
b110000 @"
b110000 ^"
b10101000000011 C
b10101000000011 b
b10101000000011 *"
b10101000000011 6"
b10101000000011 8"
b10101000000011 9"
b1100000010101000100011 O
b1100000010101000100011 )"
b1100000010101000100011 2"
b10100 T
b10100 $"
b10100 Z"
b10100 ."
b1111 M
b1111 &"
b1111 R"
b1111 4"
b0 N
b0 %"
b0 K"
b0 3"
b0 W
b0 \
b0 #"
b0 ,"
1R
10"
0P
05"
1V
1-"
b1111 8
b1111 n
b1111 |
b1111 E"
b1111 u
b10 9
b10 j
b10 p
b10 v
b11110000 ?
b11110000 k
b11110000 q
b11110000 r
b11110000 A"
b11110000 L"
b11110000 S"
b1101 3
b1101 }
b1101 F"
b1101 J"
b1101 _"
b10 7
b10 B"
b10 e"
b10 G"
b1100 $
1!
#625
0!
